{"data":[{
					"brandId":124,
					"brandName":"test",
					"manufacturerName":"sample",
					"isActive":"true"
				},{
					"brandId":125,
					"brandName":"test",
					"manufacturerName":"sample2",
					"isActive":"true"
				},{
					"brandId":126,
					"brandName":"test",
					"manufacturerName":"sample3",
					"isActive":"true"
				}],
				 "success": true,
                "message": ""}